<?xml version="1.0" standalone="no"?>
<!DOCTYPE svg PUBLIC "-//W3C//DTD SVG 1.1//EN" "http://www.w3.org/Graphics/SVG/1.1/DTD/svg11.dtd" >
<!--
2018-3-20: Created with FontForge (http://fontforge.org)
-->
<svg xmlns="http://www.w3.org/2000/svg" xmlns:xlink="http://www.w3.org/1999/xlink" version="1.1">
<metadata>
Created by FontForge 20160405 at Tue Mar 20 12:54:58 2018
 By Apache
Copyright (c) 2018, Apache
</metadata>
<defs>
<font id="Flaticon" horiz-adv-x="512" >
  <font-face 
    font-family="Flaticon"
    font-weight="400"
    font-stretch="normal"
    units-per-em="512"
    panose-1="2 0 5 3 0 0 0 0 0 0"
    ascent="448"
    descent="-64"
    bbox="0 -64 512 448"
    underline-thickness="25.6"
    underline-position="-51.2"
    unicode-range="U+0020-F103"
  />
    <missing-glyph />
    <glyph glyph-name="space" unicode=" " horiz-adv-x="200" 
 />
    <glyph glyph-name="uniF103" unicode="&#xf103;" 
d="M372.363 122.182v186.182h-186.182v46.5459h186.182c25.6006 0 46.5459 -20.9453 46.5459 -46.5459v-186.182h-46.5459zM139.637 75.6367h372.363v-46.5459h-93.0908v-93.0908h-46.5459v93.0908h-232.727c-25.6006 0 -46.5459 20.9453 -46.5459 46.5459v232.727h-93.0908
v46.5459h93.0908v93.0908h46.5459v-372.363z" />
    <glyph glyph-name="uniF102" unicode="&#xf102;" 
d="M494.479 324.405l-132.425 -132.427l149.793 -149.796l-106.072 -106.073l-149.796 149.796l-114.546 -114.546l-141.433 -35.3594l35.3584 141.432l114.547 114.547l-149.796 149.796l106.075 106.075l149.794 -149.796l132.428 132.427
c11.2988 11.2979 26.3662 17.5195 42.4297 17.5195c16.0625 0 31.1309 -6.22168 42.4277 -17.5195l21.2148 -21.2178c11.2998 -11.2969 17.5215 -26.3652 17.5215 -42.4287c0 -16.0625 -6.22168 -31.1309 -17.5215 -42.4287zM409.621 409.267l-10.6074 -10.6084
l63.6455 -63.6455l10.6064 10.6074c5.63184 5.63184 8.7334 13.166 8.7334 21.2148s-3.10156 15.584 -8.7334 21.2148l-21.2148 21.2148c-5.63184 5.63281 -13.166 8.7334 -21.2148 8.7334c-8.0498 0 -15.585 -3.10156 -21.2148 -8.73145zM377.798 377.443
l-21.2158 -21.2168l63.6445 -63.6445l21.2168 21.2158zM42.5391 341.774l128.581 -128.581l63.6445 63.6445l-28.7168 28.7168l-21.2148 -21.2148l-21.2148 21.2148l21.2148 21.2148l-28.7168 28.7178l-21.2148 -21.2148l-21.2158 21.2148l21.2158 21.2148l-28.7178 28.7168
zM335.368 335.012l-265.25 -265.249l21.2148 -21.2148l265.251 265.249zM41.2344 -22.7656l63.1865 15.7969l-47.3896 47.3896zM133.763 6.11914l265.249 265.249l-21.2148 21.2148l-265.249 -265.249zM369.556 142.047l-28.7158 28.7158l-63.6445 -63.6445l128.58 -128.58
l63.6445 63.6445l-28.7168 28.7178l-21.2148 -21.2158l-21.2148 21.2158l21.2148 21.2148l-28.7168 28.7168l-21.2158 -21.2148l-21.2148 21.2148z" />
    <glyph glyph-name="uniF101" unicode="&#xf101;" 
d="M153.808 166.063v-12.1914h-153.808v29.4482l42.7998 2.14355h111.008v-13.5068h-9.38477v-5.89355h9.38477zM171.851 34.0186v196.12h297.401v-196.12h-297.401zM194.131 207.858v-151.57h252.831v151.57h-252.831zM469.211 24.9141l42.7891 -2.14453v-29.458h-382.959
v29.458l42.7998 2.14453h144.453h8.47363h144.443zM362.574 5.5127v5.89453h-89.1211v-5.89453h89.1211zM153.808 216.849v-22.2695h-110.998v196.109h297.392v-140.87h-22.2705v118.59h-252.841v-151.56h88.7178z" />
    <glyph glyph-name="uniF100" unicode="&#xf100;" 
d="M487.206 412.869c13.6943 0 24.7939 -11.1006 24.7939 -24.7949v-290.095c0 -13.6943 -11.0996 -24.7939 -24.7939 -24.7939h-172.939v-56.1846h67.2959c12.6465 0 22.9346 -10.2881 22.9346 -22.9346s-10.2881 -22.9355 -22.9346 -22.9355h-251.125
c-12.6465 0 -22.9346 10.2891 -22.9346 22.9355s10.2881 22.9346 22.9346 22.9346h67.2959v56.1846h-172.939c-13.6943 0 -24.7939 11.0996 -24.7939 24.7939v290.095c0 13.6943 11.0996 24.7949 24.7939 24.7949h462.412zM474.809 110.377v265.3h-437.617v-265.3h437.617z
M117.267 229.02c-5.34473 2.49414 -8.79297 7.90332 -8.79199 13.7822v1.08789c0 5.88672 3.4502 11.2969 8.79102 13.7822l78.2002 36.3633c1.97949 0.919922 4.19238 1.4043 6.39648 1.4043c2.9248 0 5.75781 -0.820312 8.18945 -2.375
c4.39648 -2.80176 7.02344 -7.59082 7.02344 -12.8115v-0.395508c0 -5.88672 -3.45215 -11.2988 -8.7959 -13.7832l-48.9141 -22.7285l48.9131 -22.7246c5.34473 -2.48438 8.79688 -7.89453 8.79688 -13.7842v-0.399414c0 -5.21289 -2.62598 -10.002 -7.02441 -12.8125
c-2.45605 -1.56152 -5.28027 -2.38477 -8.17871 -2.38477c-2.22461 0 -4.37695 0.474609 -6.39941 1.41016zM217.771 154.943c-2.84863 3.90137 -3.67383 8.98047 -2.20898 13.5928l51.5254 159.64c2.02246 6.31055 7.8418 10.5576 14.4785 10.5576h0.389648
c4.83398 0 9.42188 -2.33203 12.2744 -6.23535c2.85254 -3.91309 3.67383 -8.99707 2.19531 -13.6055l-51.5186 -159.626c-2.02148 -6.31055 -7.83496 -10.5576 -14.4707 -10.5576h-0.389648c-4.83398 0 -9.42188 2.33105 -12.2754 6.23438zM294.925 279.859v0v0.396484
c0 5.2207 2.62695 10.0098 7.0332 12.8164c2.42969 1.5498 5.26367 2.37012 8.18652 2.37012c2.20605 0 4.41504 -0.486328 6.3877 -1.40234l78.2012 -36.3662c5.34375 -2.48535 8.79297 -7.89551 8.79297 -13.7812v-1.08887
c0 -5.87988 -3.44824 -11.2891 -8.78809 -13.7793l-78.2031 -36.3672c-2.03516 -0.941406 -4.18652 -1.41602 -6.40723 -1.41602c-2.90234 0 -5.72949 0.824219 -8.17676 2.38379c-4.40332 2.81152 -7.02734 7.60059 -7.02734 12.8145v0.398438
c0 5.89062 3.45215 11.3008 8.79688 13.7852l48.9131 22.7236l-48.9131 22.7246c-5.34668 2.49414 -8.7959 7.9043 -8.7959 13.7881z" />
  </font>
</defs></svg>
